tb/sim_build/test_heichips25_pudding.vcd
$date
	Mon Feb 23 01:04:29 2026
$end
$version
	Icarus Verilog
$end
$timescale
	1ps
$end
$scope module tb_heichips25_pudding $end
$var wire 1 ! VGND $end
$var wire 1 " VPWR $end
$var wire 1 # i_in $end
$var wire 1 $ i_out $end
$var wire 8 % uio_oe [7:0] $end
$var wire 8 & uo_out [7:0] $end
$var wire 8 ' uio_out [7:0] $end
$var wire 1 ( transfer $end
$var wire 1 ) stateen $end
$var wire 1 * shift $end
$var wire 1 + dir $end
$var wire 1 , datum $end
$var reg 1 - clk $end
$var reg 1 . ena $end
$var reg 128 / ref_daisychain [127:0] $end
$var reg 128 0 ref_state [127:0] $end
$var reg 1 1 rst_n $end
$var reg 8 2 ui_in [7:0] $end
$var reg 8 3 uio_in [7:0] $end
$scope module dut $end
$var wire 1 ! VGND $end
$var wire 1 " VPWR $end
$var wire 1 - clk $end
$var wire 1 4 dacout $end
$var wire 1 . ena $end
$var wire 1 # i_in $end
$var wire 1 $ i_out $end
$var wire 1 1 rst_n $end
$var wire 8 5 ui_in [7:0] $end
$var wire 8 6 uio_in [7:0] $end
$var wire 8 7 uio_oe [7:0] $end
$var wire 2 8 vdda [1:0] $end
$var wire 8 9 uo_out [7:0] $end
$var wire 8 : uio_out [7:0] $end
$var wire 1 ; transfer $end
$var wire 4 < stateenp [3:0] $end
$var wire 4 = stateenn [3:0] $end
$var wire 4 > stateen [3:0] $end
$var wire 1 ? shift $end
$var wire 2 @ iref [1:0] $end
$var wire 1 A dir $end
$var wire 1 B datum $end
$var wire 2 C bias [1:0] $end
$var wire 1 D _unused $end
$var reg 128 E daisychain [127:0] $end
$var reg 128 F state [127:0] $end
$scope module dac $end
$var wire 1 4 Iout $end
$var wire 128 G ON [127:0] $end
$var wire 128 H ONB [127:0] $end
$var wire 1 " VDD $end
$var wire 1 ! VSS $end
$var wire 2 I VcascP [1:0] $end
$var wire 2 J VbiasP [1:0] $end
$var wire 4 K ENB [3:0] $end
$var wire 4 L EN [3:0] $end
$upscope $end
$scope module digitalen $end
$var wire 4 M in [3:0] $end
$var wire 4 N outp [3:0] $end
$var wire 4 O outn [3:0] $end
$scope begin g[0] $end
$var parameter 2 P i $end
$scope module u $end
$var wire 1 Q IN $end
$var wire 1 R OUTP $end
$var wire 1 S OUTN $end
$scope module inv1 $end
$var wire 1 Q A $end
$var wire 1 S Y $end
$upscope $end
$scope module inv2 $end
$var wire 1 S A $end
$var wire 1 R Y $end
$upscope $end
$upscope $end
$upscope $end
$scope begin g[1] $end
$var parameter 2 T i $end
$scope module u $end
$var wire 1 U IN $end
$var wire 1 V OUTP $end
$var wire 1 W OUTN $end
$scope module inv1 $end
$var wire 1 U A $end
$var wire 1 W Y $end
$upscope $end
$scope module inv2 $end
$var wire 1 W A $end
$var wire 1 V Y $end
$upscope $end
$upscope $end
$upscope $end
$scope begin g[2] $end
$var parameter 3 X i $end
$scope module u $end
$var wire 1 Y IN $end
$var wire 1 Z OUTP $end
$var wire 1 [ OUTN $end
$scope module inv1 $end
$var wire 1 Y A $end
$var wire 1 [ Y $end
$upscope $end
$scope module inv2 $end
$var wire 1 [ A $end
$var wire 1 Z Y $end
$upscope $end
$upscope $end
$upscope $end
$scope begin g[3] $end
$var parameter 3 \ i $end
$scope module u $end
$var wire 1 ] IN $end
$var wire 1 ^ OUTP $end
$var wire 1 _ OUTN $end
$scope module inv1 $end
$var wire 1 ] A $end
$var wire 1 _ Y $end
$upscope $end
$scope module inv2 $end
$var wire 1 _ A $end
$var wire 1 ^ Y $end
$upscope $end
$upscope $end
$upscope $end
$upscope $end
$scope module wires $end
$var wire 1 4 Iout $end
$var wire 1 ` bias $end
$var wire 1 a casc $end
$var wire 1 # i_in $end
$var wire 1 $ i_out $end
$var wire 1 b vdda $end
$var wire 2 c VcascP [1:0] $end
$var wire 2 d VbiasP [1:0] $end
$var wire 2 e VDDA [1:0] $end
$upscope $end
$upscope $end
$scope begin $unm_blk_10 $end
$var reg 128 f pattern_a [127:0] $end
$var integer 32 g sel [31:0] $end
$scope begin $ivl_for_loop1 $end
$var integer 32 h k [31:0] $end
$upscope $end
$upscope $end
$scope task apply_idle $end
$upscope $end
$scope task load_daisychain_lsb_first $end
$scope begin $ivl_for_loop0 $end
$upscope $end
$upscope $end
$scope task pulse_shift $end
$upscope $end
$scope task pulse_transfer $end
$upscope $end
$upscope $end
$enddefinitions $end
$comment Show the parameter values. $end
$dumpall
b11 \
b10 X
b1 T
b0 P
$end
#0
$dumpvars
b0 h
b0 g
bx f
bz e
bz d
bz c
zb
za
z`
1_
0^
0]
1[
0Z
0Y
1W
0V
0U
1S
0R
0Q
b1111 O
b0 N
b0 M
b0 L
b1111 K
bz J
bz I
bx H
bx G
bx F
bx E
0D
bz C
0B
0A
bz @
0?
b0 >
b1111 =
b0 <
0;
bx :
bx 9
bz 8
b11111111 7
b0 6
b0 5
z4
b0 3
b0 2
01
bx 0
bx /
1.
0-
0,
0+
0*
0)
0(
bx '
bx &
b11111111 %
z$
z#
1"
0!
$end
#5000
b0 '
b0 :
b11111111111111111111111111111111111111111111111111111111111111111111111111111111111111111111111111111111111111111111111111111111 H
b0 &
b0 9
b0 F
b0 G
b0 E
b0 0
b0 /
1-
#10000
0-
#15000
1-
#20000
0-
#25000
11
1-
#30000
0-
#35000
b1001000110100010101100111100010011010101111001101111011111111111011011100101110101001100001110110010101000011001000010000 f
1-
#40000
b1111 <
b1111 L
b1111 N
1R
1V
1Z
1^
b0 =
b0 K
b0 O
0S
0W
0[
0_
1Q
1U
1Y
1]
1)
b1111 >
b1111 M
1*
1?
b10010 2
b10010 5
0-
#45000
1-
#50000
0*
0?
b10000 2
b10000 5
0-
#55000
1-
#60000
1*
1?
b10010 2
b10010 5
0-
#65000
1-
#70000
0*
0?
b10000 2
b10000 5
0-
#75000
1-
#80000
1*
1?
b10010 2
b10010 5
0-
#85000
1-
#90000
0*
0?
b10000 2
b10000 5
0-
#95000
1-
#100000
1*
1?
b10010 2
b10010 5
0-
#105000
1-
#110000
0*
0?
b10000 2
b10000 5
0-
#115000
1-
#120000
1*
1?
1,
1B
b10011 2
b10011 5
0-
#125000
b1 E
b1 /
1-
#130000
0*
0?
b10001 2
b10001 5
0-
#135000
1-
#140000
1*
1?
0,
0B
b10010 2
b10010 5
0-
#145000
b10 E
b10 /
1-
#150000
0*
0?
b10000 2
b10000 5
0-
#155000
1-
#160000
1*
1?
b10010 2
b10010 5
0-
#165000
b100 E
b100 /
1-
#170000
0*
0?
b10000 2
b10000 5
0-
#175000
1-
#180000
1*
1?
b10010 2
b10010 5
0-
#185000
b1000 E
b1000 /
1-
#190000
0*
0?
b10000 2
b10000 5
0-
#195000
1-
#200000
1*
1?
b10010 2
b10010 5
0-
#205000
b10000 E
b10000 /
1-
#210000
0*
0?
b10000 2
b10000 5
0-
#215000
1-
#220000
1*
1?
1,
1B
b10011 2
b10011 5
0-
#225000
b100001 E
b100001 /
1-
#230000
0*
0?
b10001 2
b10001 5
0-
#235000
1-
#240000
1*
1?
0,
0B
b10010 2
b10010 5
0-
#245000
b1000010 E
b1000010 /
1-
#250000
0*
0?
b10000 2
b10000 5
0-
#255000
1-
#260000
1*
1?
b10010 2
b10010 5
0-
#265000
b10000100 E
b10000100 /
1-
#270000
0*
0?
b10000 2
b10000 5
0-
#275000
1-
#280000
1*
1?
1,
1B
b10011 2
b10011 5
0-
#285000
b100001001 E
b100001001 /
1-
#290000
0*
0?
b10001 2
b10001 5
0-
#295000
1-
#300000
1*
1?
b10011 2
b10011 5
0-
#305000
b1000010011 E
b1000010011 /
1-
#310000
0*
0?
b10001 2
b10001 5
0-
#315000
1-
#320000
1*
1?
0,
0B
b10010 2
b10010 5
0-
#325000
b10000100110 E
b10000100110 /
1-
#330000
0*
0?
b10000 2
b10000 5
0-
#335000
1-
#340000
1*
1?
b10010 2
b10010 5
0-
#345000
b100001001100 E
b100001001100 /
1-
#350000
0*
0?
b10000 2
b10000 5
0-
#355000
1-
#360000
1*
1?
b10010 2
b10010 5
0-
#365000
b1000010011000 E
b1000010011000 /
1-
#370000
0*
0?
b10000 2
b10000 5
0-
#375000
1-
#380000
1*
1?
b10010 2
b10010 5
0-
#385000
b10000100110000 E
b10000100110000 /
1-
#390000
0*
0?
b10000 2
b10000 5
0-
#395000
1-
#400000
1*
1?
1,
1B
b10011 2
b10011 5
0-
#405000
b100001001100001 E
b100001001100001 /
1-
#410000
0*
0?
b10001 2
b10001 5
0-
#415000
1-
#420000
1*
1?
0,
0B
b10010 2
b10010 5
0-
#425000
b1000010011000010 E
b1000010011000010 /
1-
#430000
0*
0?
b10000 2
b10000 5
0-
#435000
1-
#440000
1*
1?
1,
1B
b10011 2
b10011 5
0-
#445000
b10000100110000101 E
b10000100110000101 /
1-
#450000
0*
0?
b10001 2
b10001 5
0-
#455000
1-
#460000
1*
1?
0,
0B
b10010 2
b10010 5
0-
#465000
b100001001100001010 E
b100001001100001010 /
1-
#470000
0*
0?
b10000 2
b10000 5
0-
#475000
1-
#480000
1*
1?
1,
1B
b10011 2
b10011 5
0-
#485000
b1000010011000010101 E
b1000010011000010101 /
1-
#490000
0*
0?
b10001 2
b10001 5
0-
#495000
1-
#500000
1*
1?
0,
0B
b10010 2
b10010 5
0-
#505000
b10000100110000101010 E
b10000100110000101010 /
1-
#510000
0*
0?
b10000 2
b10000 5
0-
#515000
1-
#520000
1*
1?
b10010 2
b10010 5
0-
#525000
b100001001100001010100 E
b100001001100001010100 /
1-
#530000
0*
0?
b10000 2
b10000 5
0-
#535000
1-
#540000
1*
1?
1,
1B
b10011 2
b10011 5
0-
#545000
b1000010011000010101001 E
b1000010011000010101001 /
1-
#550000
0*
0?
b10001 2
b10001 5
0-
#555000
1-
#560000
1*
1?
b10011 2
b10011 5
0-
#565000
b10000100110000101010011 E
b10000100110000101010011 /
1-
#570000
0*
0?
b10001 2
b10001 5
0-
#575000
1-
#580000
1*
1?
0,
0B
b10010 2
b10010 5
0-
#585000
b100001001100001010100110 E
b100001001100001010100110 /
1-
#590000
0*
0?
b10000 2
b10000 5
0-
#595000
1-
#600000
1*
1?
1,
1B
b10011 2
b10011 5
0-
#605000
b1000010011000010101001101 E
b1000010011000010101001101 /
1-
#610000
0*
0?
b10001 2
b10001 5
0-
#615000
1-
#620000
1*
1?
b10011 2
b10011 5
0-
#625000
b10000100110000101010011011 E
b10000100110000101010011011 /
1-
#630000
0*
0?
b10001 2
b10001 5
0-
#635000
1-
#640000
1*
1?
b10011 2
b10011 5
0-
#645000
b100001001100001010100110111 E
b100001001100001010100110111 /
1-
#650000
0*
0?
b10001 2
b10001 5
0-
#655000
1-
#660000
1*
1?
0,
0B
b10010 2
b10010 5
0-
#665000
b1000010011000010101001101110 E
b1000010011000010101001101110 /
1-
#670000
0*
0?
b10000 2
b10000 5
0-
#675000
1-
#680000
1*
1?
b10010 2
b10010 5
0-
#685000
b10000100110000101010011011100 E
b10000100110000101010011011100 /
1-
#690000
0*
0?
b10000 2
b10000 5
0-
#695000
1-
#700000
1*
1?
b10010 2
b10010 5
0-
#705000
b100001001100001010100110111000 E
b100001001100001010100110111000 /
1-
#710000
0*
0?
b10000 2
b10000 5
0-
#715000
1-
#720000
1*
1?
b10010 2
b10010 5
0-
#725000
b1000010011000010101001101110000 E
b1000010011000010101001101110000 /
1-
#730000
0*
0?
b10000 2
b10000 5
0-
#735000
1-
#740000
1*
1?
1,
1B
b10011 2
b10011 5
0-
#745000
b10000100110000101010011011100001 E
b10000100110000101010011011100001 /
1-
#750000
0*
0?
b10001 2
b10001 5
0-
#755000
1-
#760000
1*
1?
b10011 2
b10011 5
0-
#765000
b100001001100001010100110111000011 E
b100001001100001010100110111000011 /
1-
#770000
0*
0?
b10001 2
b10001 5
0-
#775000
1-
#780000
1*
1?
0,
0B
b10010 2
b10010 5
0-
#785000
b1000010011000010101001101110000110 E
b1000010011000010101001101110000110 /
1-
#790000
0*
0?
b10000 2
b10000 5
0-
#795000
1-
#800000
1*
1?
b10010 2
b10010 5
0-
#805000
b10000100110000101010011011100001100 E
b10000100110000101010011011100001100 /
1-
#810000
0*
0?
b10000 2
b10000 5
0-
#815000
1-
#820000
1*
1?
1,
1B
b10011 2
b10011 5
0-
#825000
b100001001100001010100110111000011001 E
b100001001100001010100110111000011001 /
1-
#830000
0*
0?
b10001 2
b10001 5
0-
#835000
1-
#840000
1*
1?
0,
0B
b10010 2
b10010 5
0-
#845000
b1000010011000010101001101110000110010 E
b1000010011000010101001101110000110010 /
1-
#850000
0*
0?
b10000 2
b10000 5
0-
#855000
1-
#860000
1*
1?
1,
1B
b10011 2
b10011 5
0-
#865000
b10000100110000101010011011100001100101 E
b10000100110000101010011011100001100101 /
1-
#870000
0*
0?
b10001 2
b10001 5
0-
#875000
1-
#880000
1*
1?
0,
0B
b10010 2
b10010 5
0-
#885000
b100001001100001010100110111000011001010 E
b100001001100001010100110111000011001010 /
1-
#890000
0*
0?
b10000 2
b10000 5
0-
#895000
1-
#900000
1*
1?
1,
1B
b10011 2
b10011 5
0-
#905000
b1000010011000010101001101110000110010101 E
b1000010011000010101001101110000110010101 /
1-
#910000
0*
0?
b10001 2
b10001 5
0-
#915000
1-
#920000
1*
1?
b10011 2
b10011 5
0-
#925000
b10000100110000101010011011100001100101011 E
b10000100110000101010011011100001100101011 /
1-
#930000
0*
0?
b10001 2
b10001 5
0-
#935000
1-
#940000
1*
1?
b10011 2
b10011 5
0-
#945000
b100001001100001010100110111000011001010111 E
b100001001100001010100110111000011001010111 /
1-
#950000
0*
0?
b10001 2
b10001 5
0-
#955000
1-
#960000
1*
1?
0,
0B
b10010 2
b10010 5
0-
#965000
b1000010011000010101001101110000110010101110 E
b1000010011000010101001101110000110010101110 /
1-
#970000
0*
0?
b10000 2
b10000 5
0-
#975000
1-
#980000
1*
1?
1,
1B
b10011 2
b10011 5
0-
#985000
b10000100110000101010011011100001100101011101 E
b10000100110000101010011011100001100101011101 /
1-
#990000
0*
0?
b10001 2
b10001 5
0-
#995000
1-
#1000000
1*
1?
0,
0B
b10010 2
b10010 5
0-
#1005000
b100001001100001010100110111000011001010111010 E
b100001001100001010100110111000011001010111010 /
1-
#1010000
0*
0?
b10000 2
b10000 5
0-
#1015000
1-
#1020000
1*
1?
b10010 2
b10010 5
0-
#1025000
b1000010011000010101001101110000110010101110100 E
b1000010011000010101001101110000110010101110100 /
1-
#1030000
0*
0?
b10000 2
b10000 5
0-
#1035000
1-
#1040000
1*
1?
1,
1B
b10011 2
b10011 5
0-
#1045000
b10000100110000101010011011100001100101011101001 E
b10000100110000101010011011100001100101011101001 /
1-
#1050000
0*
0?
b10001 2
b10001 5
0-
#1055000
1-
#1060000
1*
1?
b10011 2
b10011 5
0-
#1065000
b100001001100001010100110111000011001010111010011 E
b100001001100001010100110111000011001010111010011 /
1-
#1070000
0*
0?
b10001 2
b10001 5
0-
#1075000
1-
#1080000
1*
1?
b10011 2
b10011 5
0-
#1085000
b1000010011000010101001101110000110010101110100111 E
b1000010011000010101001101110000110010101110100111 /
1-
#1090000
0*
0?
b10001 2
b10001 5
0-
#1095000
1-
#1100000
1*
1?
0,
0B
b10010 2
b10010 5
0-
#1105000
b10000100110000101010011011100001100101011101001110 E
b10000100110000101010011011100001100101011101001110 /
1-
#1110000
0*
0?
b10000 2
b10000 5
0-
#1115000
1-
#1120000
1*
1?
1,
1B
b10011 2
b10011 5
0-
#1125000
b100001001100001010100110111000011001010111010011101 E
b100001001100001010100110111000011001010111010011101 /
1-
#1130000
0*
0?
b10001 2
b10001 5
0-
#1135000
1-
#1140000
1*
1?
b10011 2
b10011 5
0-
#1145000
b1000010011000010101001101110000110010101110100111011 E
b1000010011000010101001101110000110010101110100111011 /
1-
#1150000
0*
0?
b10001 2
b10001 5
0-
#1155000
1-
#1160000
1*
1?
0,
0B
b10010 2
b10010 5
0-
#1165000
b10000100110000101010011011100001100101011101001110110 E
b10000100110000101010011011100001100101011101001110110 /
1-
#1170000
0*
0?
b10000 2
b10000 5
0-
#1175000
1-
#1180000
1*
1?
1,
1B
b10011 2
b10011 5
0-
#1185000
b100001001100001010100110111000011001010111010011101101 E
b100001001100001010100110111000011001010111010011101101 /
1-
#1190000
0*
0?
b10001 2
b10001 5
0-
#1195000
1-
#1200000
1*
1?
b10011 2
b10011 5
0-
#1205000
b1000010011000010101001101110000110010101110100111011011 E
b1000010011000010101001101110000110010101110100111011011 /
1-
#1210000
0*
0?
b10001 2
b10001 5
0-
#1215000
1-
#1220000
1*
1?
b10011 2
b10011 5
0-
#1225000
b10000100110000101010011011100001100101011101001110110111 E
b10000100110000101010011011100001100101011101001110110111 /
1-
#1230000
0*
0?
b10001 2
b10001 5
0-
#1235000
1-
#1240000
1*
1?
b10011 2
b10011 5
0-
#1245000
b100001001100001010100110111000011001010111010011101101111 E
b100001001100001010100110111000011001010111010011101101111 /
1-
#1250000
0*
0?
b10001 2
b10001 5
0-
#1255000
1-
#1260000
1*
1?
b10011 2
b10011 5
0-
#1265000
b1000010011000010101001101110000110010101110100111011011111 E
b1000010011000010101001101110000110010101110100111011011111 /
1-
#1270000
0*
0?
b10001 2
b10001 5
0-
#1275000
1-
#1280000
1*
1?
b10011 2
b10011 5
0-
#1285000
b10000100110000101010011011100001100101011101001110110111111 E
b10000100110000101010011011100001100101011101001110110111111 /
1-
#1290000
0*
0?
b10001 2
b10001 5
0-
#1295000
1-
#1300000
1*
1?
b10011 2
b10011 5
0-
#1305000
b100001001100001010100110111000011001010111010011101101111111 E
b100001001100001010100110111000011001010111010011101101111111 /
1-
#1310000
0*
0?
b10001 2
b10001 5
0-
#1315000
1-
#1320000
1*
1?
b10011 2
b10011 5
0-
#1325000
b1000010011000010101001101110000110010101110100111011011111111 E
b1000010011000010101001101110000110010101110100111011011111111 /
1-
#1330000
0*
0?
b10001 2
b10001 5
0-
#1335000
1-
#1340000
1*
1?
b10011 2
b10011 5
0-
#1345000
b10000100110000101010011011100001100101011101001110110111111111 E
b10000100110000101010011011100001100101011101001110110111111111 /
1-
#1350000
0*
0?
b10001 2
b10001 5
0-
#1355000
1-
#1360000
1*
1?
b10011 2
b10011 5
0-
#1365000
b100001001100001010100110111000011001010111010011101101111111111 E
b100001001100001010100110111000011001010111010011101101111111111 /
1-
#1370000
0*
0?
b10001 2
b10001 5
0-
#1375000
1-
#1380000
1*
1?
b10011 2
b10011 5
0-
#1385000
b1000010011000010101001101110000110010101110100111011011111111111 E
b1000010011000010101001101110000110010101110100111011011111111111 /
1-
#1390000
0*
0?
b10001 2
b10001 5
0-
#1395000
1-
#1400000
1*
1?
0,
0B
b10010 2
b10010 5
0-
#1405000
b10000100110000101010011011100001100101011101001110110111111111110 E
b10000100110000101010011011100001100101011101001110110111111111110 /
1-
#1410000
0*
0?
b10000 2
b10000 5
0-
#1415000
1-
#1420000
1*
1?
1,
1B
b10011 2
b10011 5
0-
#1425000
b100001001100001010100110111000011001010111010011101101111111111101 E
b100001001100001010100110111000011001010111010011101101111111111101 /
1-
#1430000
0*
0?
b10001 2
b10001 5
0-
#1435000
1-
#1440000
1*
1?
b10011 2
b10011 5
0-
#1445000
b1000010011000010101001101110000110010101110100111011011111111111011 E
b1000010011000010101001101110000110010101110100111011011111111111011 /
1-
#1450000
0*
0?
b10001 2
b10001 5
0-
#1455000
1-
#1460000
1*
1?
b10011 2
b10011 5
0-
#1465000
b10000100110000101010011011100001100101011101001110110111111111110111 E
b10000100110000101010011011100001100101011101001110110111111111110111 /
1-
#1470000
0*
0?
b10001 2
b10001 5
0-
#1475000
1-
#1480000
1*
1?
b10011 2
b10011 5
0-
#1485000
b100001001100001010100110111000011001010111010011101101111111111101111 E
b100001001100001010100110111000011001010111010011101101111111111101111 /
1-
#1490000
0*
0?
b10001 2
b10001 5
0-
#1495000
1-
#1500000
1*
1?
0,
0B
b10010 2
b10010 5
0-
#1505000
b1000010011000010101001101110000110010101110100111011011111111111011110 E
b1000010011000010101001101110000110010101110100111011011111111111011110 /
1-
#1510000
0*
0?
b10000 2
b10000 5
0-
#1515000
1-
#1520000
1*
1?
1,
1B
b10011 2
b10011 5
0-
#1525000
b10000100110000101010011011100001100101011101001110110111111111110111101 E
b10000100110000101010011011100001100101011101001110110111111111110111101 /
1-
#1530000
0*
0?
b10001 2
b10001 5
0-
#1535000
1-
#1540000
1*
1?
b10011 2
b10011 5
0-
#1545000
b100001001100001010100110111000011001010111010011101101111111111101111011 E
b100001001100001010100110111000011001010111010011101101111111111101111011 /
1-
#1550000
0*
0?
b10001 2
b10001 5
0-
#1555000
1-
#1560000
1*
1?
0,
0B
b10010 2
b10010 5
0-
#1565000
b1000010011000010101001101110000110010101110100111011011111111111011110110 E
b1000010011000010101001101110000110010101110100111011011111111111011110110 /
1-
#1570000
0*
0?
b10000 2
b10000 5
0-
#1575000
1-
#1580000
1*
1?
b10010 2
b10010 5
0-
#1585000
b10000100110000101010011011100001100101011101001110110111111111110111101100 E
b10000100110000101010011011100001100101011101001110110111111111110111101100 /
1-
#1590000
0*
0?
b10000 2
b10000 5
0-
#1595000
1-
#1600000
1*
1?
1,
1B
b10011 2
b10011 5
0-
#1605000
b100001001100001010100110111000011001010111010011101101111111111101111011001 E
b100001001100001010100110111000011001010111010011101101111111111101111011001 /
1-
#1610000
0*
0?
b10001 2
b10001 5
0-
#1615000
1-
#1620000
1*
1?
b10011 2
b10011 5
0-
#1625000
b1000010011000010101001101110000110010101110100111011011111111111011110110011 E
b1000010011000010101001101110000110010101110100111011011111111111011110110011 /
1-
#1630000
0*
0?
b10001 2
b10001 5
0-
#1635000
1-
#1640000
1*
1?
b10011 2
b10011 5
0-
#1645000
b10000100110000101010011011100001100101011101001110110111111111110111101100111 E
b10000100110000101010011011100001100101011101001110110111111111110111101100111 /
1-
#1650000
0*
0?
b10001 2
b10001 5
0-
#1655000
1-
#1660000
1*
1?
b10011 2
b10011 5
0-
#1665000
b100001001100001010100110111000011001010111010011101101111111111101111011001111 E
b100001001100001010100110111000011001010111010011101101111111111101111011001111 /
1-
#1670000
0*
0?
b10001 2
b10001 5
0-
#1675000
1-
#1680000
1*
1?
0,
0B
b10010 2
b10010 5
0-
#1685000
b1000010011000010101001101110000110010101110100111011011111111111011110110011110 E
b1000010011000010101001101110000110010101110100111011011111111111011110110011110 /
1-
#1690000
0*
0?
b10000 2
b10000 5
0-
#1695000
1-
#1700000
1*
1?
1,
1B
b10011 2
b10011 5
0-
#1705000
b10000100110000101010011011100001100101011101001110110111111111110111101100111101 E
b10000100110000101010011011100001100101011101001110110111111111110111101100111101 /
1-
#1710000
0*
0?
b10001 2
b10001 5
0-
#1715000
1-
#1720000
1*
1?
0,
0B
b10010 2
b10010 5
0-
#1725000
b100001001100001010100110111000011001010111010011101101111111111101111011001111010 E
b100001001100001010100110111000011001010111010011101101111111111101111011001111010 /
1-
#1730000
0*
0?
b10000 2
b10000 5
0-
#1735000
1-
#1740000
1*
1?
1,
1B
b10011 2
b10011 5
0-
#1745000
b1000010011000010101001101110000110010101110100111011011111111111011110110011110101 E
b1000010011000010101001101110000110010101110100111011011111111111011110110011110101 /
1-
#1750000
0*
0?
b10001 2
b10001 5
0-
#1755000
1-
#1760000
1*
1?
0,
0B
b10010 2
b10010 5
0-
#1765000
b10000100110000101010011011100001100101011101001110110111111111110111101100111101010 E
b10000100110000101010011011100001100101011101001110110111111111110111101100111101010 /
1-
#1770000
0*
0?
b10000 2
b10000 5
0-
#1775000
1-
#1780000
1*
1?
1,
1B
b10011 2
b10011 5
0-
#1785000
b100001001100001010100110111000011001010111010011101101111111111101111011001111010101 E
b100001001100001010100110111000011001010111010011101101111111111101111011001111010101 /
1-
#1790000
0*
0?
b10001 2
b10001 5
0-
#1795000
1-
#1800000
1*
1?
b10011 2
b10011 5
0-
#1805000
b1000010011000010101001101110000110010101110100111011011111111111011110110011110101011 E
b1000010011000010101001101110000110010101110100111011011111111111011110110011110101011 /
1-
#1810000
0*
0?
b10001 2
b10001 5
0-
#1815000
1-
#1820000
1*
1?
0,
0B
b10010 2
b10010 5
0-
#1825000
b10000100110000101010011011100001100101011101001110110111111111110111101100111101010110 E
b10000100110000101010011011100001100101011101001110110111111111110111101100111101010110 /
1-
#1830000
0*
0?
b10000 2
b10000 5
0-
#1835000
1-
#1840000
1*
1?
b10010 2
b10010 5
0-
#1845000
b100001001100001010100110111000011001010111010011101101111111111101111011001111010101100 E
b100001001100001010100110111000011001010111010011101101111111111101111011001111010101100 /
1-
#1850000
0*
0?
b10000 2
b10000 5
0-
#1855000
1-
#1860000
1*
1?
1,
1B
b10011 2
b10011 5
0-
#1865000
b1000010011000010101001101110000110010101110100111011011111111111011110110011110101011001 E
b1000010011000010101001101110000110010101110100111011011111111111011110110011110101011001 /
1-
#1870000
0*
0?
b10001 2
b10001 5
0-
#1875000
1-
#1880000
1*
1?
0,
0B
b10010 2
b10010 5
0-
#1885000
b10000100110000101010011011100001100101011101001110110111111111110111101100111101010110010 E
b10000100110000101010011011100001100101011101001110110111111111110111101100111101010110010 /
1-
#1890000
0*
0?
b10000 2
b10000 5
0-
#1895000
1-
#1900000
1*
1?
b10010 2
b10010 5
0-
#1905000
b100001001100001010100110111000011001010111010011101101111111111101111011001111010101100100 E
b100001001100001010100110111000011001010111010011101101111111111101111011001111010101100100 /
1-
#1910000
0*
0?
b10000 2
b10000 5
0-
#1915000
1-
#1920000
1*
1?
b10010 2
b10010 5
0-
#1925000
b1000010011000010101001101110000110010101110100111011011111111111011110110011110101011001000 E
b1000010011000010101001101110000110010101110100111011011111111111011110110011110101011001000 /
1-
#1930000
0*
0?
b10000 2
b10000 5
0-
#1935000
1-
#1940000
1*
1?
1,
1B
b10011 2
b10011 5
0-
#1945000
b10000100110000101010011011100001100101011101001110110111111111110111101100111101010110010001 E
b10000100110000101010011011100001100101011101001110110111111111110111101100111101010110010001 /
1-
#1950000
0*
0?
b10001 2
b10001 5
0-
#1955000
1-
#1960000
1*
1?
b10011 2
b10011 5
0-
#1965000
b100001001100001010100110111000011001010111010011101101111111111101111011001111010101100100011 E
b100001001100001010100110111000011001010111010011101101111111111101111011001111010101100100011 /
1-
#1970000
0*
0?
b10001 2
b10001 5
0-
#1975000
1-
#1980000
1*
1?
b10011 2
b10011 5
0-
#1985000
b1000010011000010101001101110000110010101110100111011011111111111011110110011110101011001000111 E
b1000010011000010101001101110000110010101110100111011011111111111011110110011110101011001000111 /
1-
#1990000
0*
0?
b10001 2
b10001 5
0-
#1995000
1-
#2000000
1*
1?
b10011 2
b10011 5
0-
#2005000
b10000100110000101010011011100001100101011101001110110111111111110111101100111101010110010001111 E
b10000100110000101010011011100001100101011101001110110111111111110111101100111101010110010001111 /
1-
#2010000
0*
0?
b10001 2
b10001 5
0-
#2015000
1-
#2020000
1*
1?
0,
0B
b10010 2
b10010 5
0-
#2025000
b100001001100001010100110111000011001010111010011101101111111111101111011001111010101100100011110 E
b100001001100001010100110111000011001010111010011101101111111111101111011001111010101100100011110 /
1-
#2030000
0*
0?
b10000 2
b10000 5
0-
#2035000
1-
#2040000
1*
1?
b10010 2
b10010 5
0-
#2045000
b1000010011000010101001101110000110010101110100111011011111111111011110110011110101011001000111100 E
b1000010011000010101001101110000110010101110100111011011111111111011110110011110101011001000111100 /
1-
#2050000
0*
0?
b10000 2
b10000 5
0-
#2055000
1-
#2060000
1*
1?
1,
1B
b10011 2
b10011 5
0-
#2065000
b10000100110000101010011011100001100101011101001110110111111111110111101100111101010110010001111001 E
b10000100110000101010011011100001100101011101001110110111111111110111101100111101010110010001111001 /
1-
#2070000
0*
0?
b10001 2
b10001 5
0-
#2075000
1-
#2080000
1*
1?
b10011 2
b10011 5
0-
#2085000
b100001001100001010100110111000011001010111010011101101111111111101111011001111010101100100011110011 E
b100001001100001010100110111000011001010111010011101101111111111101111011001111010101100100011110011 /
1-
#2090000
0*
0?
b10001 2
b10001 5
0-
#2095000
1-
#2100000
1*
1?
0,
0B
b10010 2
b10010 5
0-
#2105000
b1000010011000010101001101110000110010101110100111011011111111111011110110011110101011001000111100110 E
b1000010011000010101001101110000110010101110100111011011111111111011110110011110101011001000111100110 /
1-
#2110000
0*
0?
b10000 2
b10000 5
0-
#2115000
1-
#2120000
1*
1?
1,
1B
b10011 2
b10011 5
0-
#2125000
b10000100110000101010011011100001100101011101001110110111111111110111101100111101010110010001111001101 E
b10000100110000101010011011100001100101011101001110110111111111110111101100111101010110010001111001101 /
1-
#2130000
0*
0?
b10001 2
b10001 5
0-
#2135000
1-
#2140000
1*
1?
0,
0B
b10010 2
b10010 5
0-
#2145000
b100001001100001010100110111000011001010111010011101101111111111101111011001111010101100100011110011010 E
b100001001100001010100110111000011001010111010011101101111111111101111011001111010101100100011110011010 /
1-
#2150000
0*
0?
b10000 2
b10000 5
0-
#2155000
1-
#2160000
1*
1?
1,
1B
b10011 2
b10011 5
0-
#2165000
b1000010011000010101001101110000110010101110100111011011111111111011110110011110101011001000111100110101 E
b1000010011000010101001101110000110010101110100111011011111111111011110110011110101011001000111100110101 /
1-
#2170000
0*
0?
b10001 2
b10001 5
0-
#2175000
1-
#2180000
1*
1?
0,
0B
b10010 2
b10010 5
0-
#2185000
b10000100110000101010011011100001100101011101001110110111111111110111101100111101010110010001111001101010 E
b10000100110000101010011011100001100101011101001110110111111111110111101100111101010110010001111001101010 /
1-
#2190000
0*
0?
b10000 2
b10000 5
0-
#2195000
1-
#2200000
1*
1?
b10010 2
b10010 5
0-
#2205000
b100001001100001010100110111000011001010111010011101101111111111101111011001111010101100100011110011010100 E
b100001001100001010100110111000011001010111010011101101111111111101111011001111010101100100011110011010100 /
1-
#2210000
0*
0?
b10000 2
b10000 5
0-
#2215000
1-
